Library\Bee\artifacts\mvdfrm\Unity.InputSystem.ref.dll_29109081F030768C.mvfrm
Library\Bee\artifacts\mvdfrm\Unity.VisualScripting.Core.ref.dll_27ACA245D8399F39.mvfrm
Library\Bee\artifacts\mvdfrm\UnityEngine.UI.ref.dll_FAE6DBEA21006BE5.mvfrm
Library\Bee\artifacts\mvdfrm\UnityEngine.AccessibilityModule.dll_3CD046B305811B00.mvfrm
Library\Bee\artifacts\mvdfrm\UnityEngine.AIModule.dll_0FF0DEC32870C57A.mvfrm
Library\Bee\artifacts\mvdfrm\UnityEngine.AndroidJNIModule.dll_90B9E1E8FEC84838.mvfrm
Library\Bee\artifacts\mvdfrm\UnityEngine.AnimationModule.dll_929597300A2739A6.mvfrm
Library\Bee\artifacts\mvdfrm\UnityEngine.ARModule.dll_C963A3C6858E2443.mvfrm
Library\Bee\artifacts\mvdfrm\UnityEngine.AssetBundleModule.dll_3FFBCBC5C08BA194.mvfrm
Library\Bee\artifacts\mvdfrm\UnityEngine.AudioModule.dll_C4C5E8EB2D58C118.mvfrm
Library\Bee\artifacts\mvdfrm\UnityEngine.ClothModule.dll_2BAE45E607759FFC.mvfrm
Library\Bee\artifacts\mvdfrm\UnityEngine.ClusterInputModule.dll_E9286B3D6E0E6C62.mvfrm
Library\Bee\artifacts\mvdfrm\UnityEngine.ClusterRendererModule.dll_5428066CDE4CF23F.mvfrm
Library\Bee\artifacts\mvdfrm\UnityEngine.CoreModule.dll_8C5B205234C16311.mvfrm
Library\Bee\artifacts\mvdfrm\UnityEngine.CrashReportingModule.dll_D786ED6B408E0B49.mvfrm
Library\Bee\artifacts\mvdfrm\UnityEngine.DirectorModule.dll_2B165901C4416D6E.mvfrm
Library\Bee\artifacts\mvdfrm\UnityEngine.dll_27D3F85D026E79B4.mvfrm
Library\Bee\artifacts\mvdfrm\UnityEngine.DSPGraphModule.dll_3067BA6B36A23E8F.mvfrm
Library\Bee\artifacts\mvdfrm\UnityEngine.GameCenterModule.dll_BB072C03C5093929.mvfrm
Library\Bee\artifacts\mvdfrm\UnityEngine.GIModule.dll_A82D27D0C41FAD94.mvfrm
Library\Bee\artifacts\mvdfrm\UnityEngine.GridModule.dll_69CC3C404D15F908.mvfrm
Library\Bee\artifacts\mvdfrm\UnityEngine.HotReloadModule.dll_13DE5535E55A5528.mvfrm
Library\Bee\artifacts\mvdfrm\UnityEngine.ImageConversionModule.dll_C01A041D6071AA33.mvfrm
Library\Bee\artifacts\mvdfrm\UnityEngine.IMGUIModule.dll_FD258851F38A54F9.mvfrm
Library\Bee\artifacts\mvdfrm\UnityEngine.InputLegacyModule.dll_D140E6E4587D5785.mvfrm
Library\Bee\artifacts\mvdfrm\UnityEngine.InputModule.dll_2B3BB09BA390E5BC.mvfrm
Library\Bee\artifacts\mvdfrm\UnityEngine.JSONSerializeModule.dll_9CE7CFEF04BC7B8A.mvfrm
Library\Bee\artifacts\mvdfrm\UnityEngine.LocalizationModule.dll_27753590058A5F5B.mvfrm
Library\Bee\artifacts\mvdfrm\UnityEngine.ParticleSystemModule.dll_2A9936B7AE9F96D7.mvfrm
Library\Bee\artifacts\mvdfrm\UnityEngine.PerformanceReportingModule.dll_500F5C9E206E48D0.mvfrm
Library\Bee\artifacts\mvdfrm\UnityEngine.Physics2DModule.dll_DF3B8720AB24313B.mvfrm
Library\Bee\artifacts\mvdfrm\UnityEngine.PhysicsModule.dll_F06E44A93E55FEE9.mvfrm
Library\Bee\artifacts\mvdfrm\UnityEngine.ProfilerModule.dll_5D5C92385D9AF47B.mvfrm
Library\Bee\artifacts\mvdfrm\UnityEngine.RuntimeInitializeOnLoadManagerInitializerModule.dll_DB2BFB8271289804.mvfrm
Library\Bee\artifacts\mvdfrm\UnityEngine.ScreenCaptureModule.dll_B6CF7D741928A7EC.mvfrm
Library\Bee\artifacts\mvdfrm\UnityEngine.SharedInternalsModule.dll_442B42F2D79FA583.mvfrm
Library\Bee\artifacts\mvdfrm\UnityEngine.SpriteMaskModule.dll_A4339E93E678CEA3.mvfrm
Library\Bee\artifacts\mvdfrm\UnityEngine.SpriteShapeModule.dll_595CF920762DD99E.mvfrm
Library\Bee\artifacts\mvdfrm\UnityEngine.StreamingModule.dll_472A848059AEF0E4.mvfrm
Library\Bee\artifacts\mvdfrm\UnityEngine.SubstanceModule.dll_23D598C9A501EEF2.mvfrm
Library\Bee\artifacts\mvdfrm\UnityEngine.SubsystemsModule.dll_0EE104F5B4C0B6B6.mvfrm
Library\Bee\artifacts\mvdfrm\UnityEngine.TerrainModule.dll_0AB4C018141447D7.mvfrm
Library\Bee\artifacts\mvdfrm\UnityEngine.TerrainPhysicsModule.dll_2B13DF8AC7E29164.mvfrm
Library\Bee\artifacts\mvdfrm\UnityEngine.TextCoreFontEngineModule.dll_3719FC40D5C3AD6F.mvfrm
Library\Bee\artifacts\mvdfrm\UnityEngine.TextCoreTextEngineModule.dll_7F0232B26547668D.mvfrm
Library\Bee\artifacts\mvdfrm\UnityEngine.TextRenderingModule.dll_E00EEF7ED06027E1.mvfrm
Library\Bee\artifacts\mvdfrm\UnityEngine.TilemapModule.dll_A9B127992BD128E0.mvfrm
Library\Bee\artifacts\mvdfrm\UnityEngine.TLSModule.dll_9B708AFFCB7CED7D.mvfrm
Library\Bee\artifacts\mvdfrm\UnityEngine.UIElementsModule.dll_131F665DB7ECF2AD.mvfrm
Library\Bee\artifacts\mvdfrm\UnityEngine.UIElementsNativeModule.dll_557FE5DF57D411E4.mvfrm
Library\Bee\artifacts\mvdfrm\UnityEngine.UIModule.dll_0B647CF084B7CB26.mvfrm
Library\Bee\artifacts\mvdfrm\UnityEngine.UmbraModule.dll_3F9A9503BA7F6C8B.mvfrm
Library\Bee\artifacts\mvdfrm\UnityEngine.UNETModule.dll_1F01683B81D0588A.mvfrm
Library\Bee\artifacts\mvdfrm\UnityEngine.UnityAnalyticsModule.dll_4A38A7815AC6E8D3.mvfrm
Library\Bee\artifacts\mvdfrm\UnityEngine.UnityConnectModule.dll_56EB7A36B70E9A47.mvfrm
Library\Bee\artifacts\mvdfrm\UnityEngine.UnityCurlModule.dll_C5B238617A3B2B93.mvfrm
Library\Bee\artifacts\mvdfrm\UnityEngine.UnityTestProtocolModule.dll_30FD81F0B99A0981.mvfrm
Library\Bee\artifacts\mvdfrm\UnityEngine.UnityWebRequestAssetBundleModule.dll_70CE2108DB24F1E4.mvfrm
Library\Bee\artifacts\mvdfrm\UnityEngine.UnityWebRequestAudioModule.dll_C80BB07CA6D91368.mvfrm
Library\Bee\artifacts\mvdfrm\UnityEngine.UnityWebRequestModule.dll_D1B90BC76B6644B2.mvfrm
Library\Bee\artifacts\mvdfrm\UnityEngine.UnityWebRequestTextureModule.dll_BC6F0D8C5105A63D.mvfrm
Library\Bee\artifacts\mvdfrm\UnityEngine.UnityWebRequestWWWModule.dll_49C4780E550722F9.mvfrm
Library\Bee\artifacts\mvdfrm\UnityEngine.VehiclesModule.dll_A2D952813E6B3D09.mvfrm
Library\Bee\artifacts\mvdfrm\UnityEngine.VFXModule.dll_1C4F236EA1EA56EA.mvfrm
Library\Bee\artifacts\mvdfrm\UnityEngine.VideoModule.dll_E9CF6D55EFEADCBD.mvfrm
Library\Bee\artifacts\mvdfrm\UnityEngine.VirtualTexturingModule.dll_7A0C9A4E3082926F.mvfrm
Library\Bee\artifacts\mvdfrm\UnityEngine.VRModule.dll_5E36A3762672509E.mvfrm
Library\Bee\artifacts\mvdfrm\UnityEngine.WindModule.dll_02A9FB7AC5F7E17A.mvfrm
Library\Bee\artifacts\mvdfrm\UnityEngine.XRModule.dll_90F5667AAFAC9DFC.mvfrm
Library\Bee\artifacts\mvdfrm\Unity.Burst.Cecil.dll_DC59955F3A19DA24.mvfrm
Library\Bee\artifacts\mvdfrm\Unity.Burst.Cecil.Mdb.dll_03D37A89D6148661.mvfrm
Library\Bee\artifacts\mvdfrm\Unity.Burst.Cecil.Pdb.dll_1B25F2F954C987E4.mvfrm
Library\Bee\artifacts\mvdfrm\Unity.Burst.Cecil.Rocks.dll_F1301A5C60E7AC84.mvfrm
Library\Bee\artifacts\mvdfrm\Unity.Burst.Unsafe.dll_E6CE208C1E43C12F.mvfrm
Library\Bee\artifacts\mvdfrm\Unity.VisualScripting.Antlr3.Runtime.dll_3C08B23681CF2126.mvfrm