Library\Bee\artifacts\mvdfrm\Unity.Services.Core.ref.dll_131AC9C5EC6E6517.mvfrm
Library\Bee\artifacts\mvdfrm\UnityEditor.UI.ref.dll_4C98D3F7040CD4F5.mvfrm
Library\Bee\artifacts\mvdfrm\UnityEngine.UI.ref.dll_08FEAA520A2EFD60.mvfrm
Library\Bee\artifacts\mvdfrm\UnityEditor.Graphs.dll_2050BDF13B2BB8DA.mvfrm
Library\Bee\artifacts\mvdfrm\UnityEditor.CoreModule.dll_0A877C7DEFF9D6A8.mvfrm
Library\Bee\artifacts\mvdfrm\UnityEditor.DeviceSimulatorModule.dll_FD8F4042D6EECF99.mvfrm
Library\Bee\artifacts\mvdfrm\UnityEditor.DiagnosticsModule.dll_9C3BB6D3DE9FF3A7.mvfrm
Library\Bee\artifacts\mvdfrm\UnityEditor.dll_CD766FB542EC126D.mvfrm
Library\Bee\artifacts\mvdfrm\UnityEditor.GraphViewModule.dll_2FCEC91E2E6CA89E.mvfrm
Library\Bee\artifacts\mvdfrm\UnityEditor.PackageManagerUIModule.dll_A604AC0D9AF3C204.mvfrm
Library\Bee\artifacts\mvdfrm\UnityEditor.QuickSearchModule.dll_274B37E13776F000.mvfrm
Library\Bee\artifacts\mvdfrm\UnityEditor.SceneTemplateModule.dll_FF44E8D002262E81.mvfrm
Library\Bee\artifacts\mvdfrm\UnityEditor.TextCoreFontEngineModule.dll_B2583A8254738B26.mvfrm
Library\Bee\artifacts\mvdfrm\UnityEditor.TextCoreTextEngineModule.dll_FA4070F3E3F74444.mvfrm
Library\Bee\artifacts\mvdfrm\UnityEditor.UIBuilderModule.dll_8457763AA12521D2.mvfrm
Library\Bee\artifacts\mvdfrm\UnityEditor.UIElementsModule.dll_B4587CB8541AB4E4.mvfrm
Library\Bee\artifacts\mvdfrm\UnityEditor.UIElementsSamplesModule.dll_53BAF2C08AF4C6C9.mvfrm
Library\Bee\artifacts\mvdfrm\UnityEditor.UIServiceModule.dll_BD49879D8A5C71EC.mvfrm
Library\Bee\artifacts\mvdfrm\UnityEditor.UnityConnectModule.dll_8F4DF10267C1D95E.mvfrm
Library\Bee\artifacts\mvdfrm\UnityEngine.AccessibilityModule.dll_31EA5467029C561E.mvfrm
Library\Bee\artifacts\mvdfrm\UnityEngine.AIModule.dll_62EFCEDEC8475FFC.mvfrm
Library\Bee\artifacts\mvdfrm\UnityEngine.AndroidJNIModule.dll_32A1658B9D3A23BA.mvfrm
Library\Bee\artifacts\mvdfrm\UnityEngine.AnimationModule.dll_FE54454708C97D44.mvfrm
Library\Bee\artifacts\mvdfrm\UnityEngine.ARModule.dll_1C6293E22564BEC5.mvfrm
Library\Bee\artifacts\mvdfrm\UnityEngine.AssetBundleModule.dll_6B346AD299DDA4F2.mvfrm
Library\Bee\artifacts\mvdfrm\UnityEngine.AudioModule.dll_79A2AAD949CBED36.mvfrm
Library\Bee\artifacts\mvdfrm\UnityEngine.ClothModule.dll_E08B07D423E8CC1A.mvfrm
Library\Bee\artifacts\mvdfrm\UnityEngine.ClusterInputModule.dll_0EEA66181949AC24.mvfrm
Library\Bee\artifacts\mvdfrm\UnityEngine.ClusterRendererModule.dll_033C02B446A9DD1D.mvfrm
Library\Bee\artifacts\mvdfrm\UnityEngine.CoreModule.dll_2DA84FD097FF41D3.mvfrm
Library\Bee\artifacts\mvdfrm\UnityEngine.CrashReportingModule.dll_7BD76FCA5DC5B74B.mvfrm
Library\Bee\artifacts\mvdfrm\UnityEngine.DirectorModule.dll_7D58F2E2970BECB0.mvfrm
Library\Bee\artifacts\mvdfrm\UnityEngine.dll_001AB68DA15F9F52.mvfrm
Library\Bee\artifacts\mvdfrm\UnityEngine.DSPGraphModule.dll_82AA544C096CBDD1.mvfrm
Library\Bee\artifacts\mvdfrm\UnityEngine.GameCenterModule.dll_5CEEAFA6637B14AB.mvfrm
Library\Bee\artifacts\mvdfrm\UnityEngine.GIModule.dll_FB2C17EC63F64816.mvfrm
Library\Bee\artifacts\mvdfrm\UnityEngine.GridModule.dll_0B196BBEB053D7CA.mvfrm
Library\Bee\artifacts\mvdfrm\UnityEngine.HotReloadModule.dll_7F9D034CE3FC98C6.mvfrm
Library\Bee\artifacts\mvdfrm\UnityEngine.ImageConversionModule.dll_6F2E0064C8CE9511.mvfrm
Library\Bee\artifacts\mvdfrm\UnityEngine.IMGUIModule.dll_B2024A400FFD8117.mvfrm
Library\Bee\artifacts\mvdfrm\UnityEngine.InputLegacyModule.dll_FC7985F131CF5AE3.mvfrm
Library\Bee\artifacts\mvdfrm\UnityEngine.InputModule.dll_E0187289C00411DA.mvfrm
Library\Bee\artifacts\mvdfrm\UnityEngine.JSONSerializeModule.dll_9201DDA301D7B6A8.mvfrm
Library\Bee\artifacts\mvdfrm\UnityEngine.LocalizationModule.dll_4D37306AB0C59F1D.mvfrm
Library\Bee\artifacts\mvdfrm\UnityEngine.ParticleSystemModule.dll_CEE9B916CBD742D9.mvfrm
Library\Bee\artifacts\mvdfrm\UnityEngine.PerformanceReportingModule.dll_A00209EF99576992.mvfrm
Library\Bee\artifacts\mvdfrm\UnityEngine.Physics2DModule.dll_4AFA3537A9C674D9.mvfrm
Library\Bee\artifacts\mvdfrm\UnityEngine.PhysicsModule.dll_3585A4A142E2FAC7.mvfrm
Library\Bee\artifacts\mvdfrm\UnityEngine.ProfilerModule.dll_AF9F2C19306573BD.mvfrm
Library\Bee\artifacts\mvdfrm\UnityEngine.RuntimeInitializeOnLoadManagerInitializerModule.dll_665A8AE4A30717A2.mvfrm
Library\Bee\artifacts\mvdfrm\UnityEngine.ScreenCaptureModule.dll_ABE98B281643E30A.mvfrm
Library\Bee\artifacts\mvdfrm\UnityEngine.SharedInternalsModule.dll_F33F3F3A3FFC9061.mvfrm
Library\Bee\artifacts\mvdfrm\UnityEngine.SpriteMaskModule.dll_461B223684EAAA25.mvfrm
Library\Bee\artifacts\mvdfrm\UnityEngine.SpriteShapeModule.dll_8495982D4F7FDCFC.mvfrm
Library\Bee\artifacts\mvdfrm\UnityEngine.StreamingModule.dll_B2E9329758513482.mvfrm
Library\Bee\artifacts\mvdfrm\UnityEngine.SubstanceModule.dll_8F9446E0A3A43290.mvfrm
Library\Bee\artifacts\mvdfrm\UnityEngine.SubsystemsModule.dll_B0C8889853329238.mvfrm
Library\Bee\artifacts\mvdfrm\UnityEngine.TerrainModule.dll_4FCC201018A143B5.mvfrm
Library\Bee\artifacts\mvdfrm\UnityEngine.TerrainPhysicsModule.dll_CF6461E9E51A3D66.mvfrm
Library\Bee\artifacts\mvdfrm\UnityEngine.TextCoreFontEngineModule.dll_30B7B5D5677149F1.mvfrm
Library\Bee\artifacts\mvdfrm\UnityEngine.TextCoreTextEngineModule.dll_789FEC46F6F5030F.mvfrm
Library\Bee\artifacts\mvdfrm\UnityEngine.TextRenderingModule.dll_D528FD32CD7B62FF.mvfrm
Library\Bee\artifacts\mvdfrm\UnityEngine.TilemapModule.dll_EEC88791305E24BE.mvfrm
Library\Bee\artifacts\mvdfrm\UnityEngine.TLSModule.dll_424AB02F6112C1DB.mvfrm
Library\Bee\artifacts\mvdfrm\UnityEngine.UIElementsModule.dll_B506EA00565ECE2F.mvfrm
Library\Bee\artifacts\mvdfrm\UnityEngine.UIElementsNativeModule.dll_F07E60A30C6C3226.mvfrm
Library\Bee\artifacts\mvdfrm\UnityEngine.UIModule.dll_5E636D0C248E65A8.mvfrm
Library\Bee\artifacts\mvdfrm\UnityEngine.UmbraModule.dll_F47756F1D6F298A9.mvfrm
Library\Bee\artifacts\mvdfrm\UnityEngine.UNETModule.dll_C04E97B9E50E374C.mvfrm
Library\Bee\artifacts\mvdfrm\UnityEngine.UnityAnalyticsModule.dll_EE8929E077FE94D5.mvfrm
Library\Bee\artifacts\mvdfrm\UnityEngine.UnityConnectModule.dll_7CAD75116249DA09.mvfrm
Library\Bee\artifacts\mvdfrm\UnityEngine.UnityCurlModule.dll_3170E67878DD6F31.mvfrm
Library\Bee\artifacts\mvdfrm\UnityEngine.UnityTestProtocolModule.dll_0F7DA8B2E4F01C1F.mvfrm
Library\Bee\artifacts\mvdfrm\UnityEngine.UnityWebRequestAssetBundleModule.dll_C9A00F4824EECF66.mvfrm
Library\Bee\artifacts\mvdfrm\UnityEngine.UnityWebRequestAudioModule.dll_17FE5DCE1FC2342A.mvfrm
Library\Bee\artifacts\mvdfrm\UnityEngine.UnityWebRequestModule.dll_80CD080ED3C32F90.mvfrm
Library\Bee\artifacts\mvdfrm\UnityEngine.UnityWebRequestTextureModule.dll_E103F0C5E7E1533F.mvfrm
Library\Bee\artifacts\mvdfrm\UnityEngine.UnityWebRequestWWWModule.dll_436231A2E6B4BF7B.mvfrm
Library\Bee\artifacts\mvdfrm\UnityEngine.VehiclesModule.dll_F51BEC621135BC4B.mvfrm
Library\Bee\artifacts\mvdfrm\UnityEngine.VFXModule.dll_C329489E37802B48.mvfrm
Library\Bee\artifacts\mvdfrm\UnityEngine.VideoModule.dll_9EAC2F440C5E08DB.mvfrm
Library\Bee\artifacts\mvdfrm\UnityEngine.VirtualTexturingModule.dll_150B1511E51AB2B1.mvfrm
Library\Bee\artifacts\mvdfrm\UnityEngine.VRModule.dll_B1359391C648EB20.mvfrm
Library\Bee\artifacts\mvdfrm\UnityEngine.WindModule.dll_A3F72AF92935C03C.mvfrm
Library\Bee\artifacts\mvdfrm\UnityEngine.XRModule.dll_E3F456964F83387E.mvfrm
Library\Bee\artifacts\mvdfrm\UnityEditor.UWP.Extensions.dll_E6F15B15D07B9E23.mvfrm
Library\Bee\artifacts\mvdfrm\UnityEditor.WindowsStandalone.Extensions.dll_021EE46FB8446D78.mvfrm
Library\Bee\artifacts\mvdfrm\Unity.Burst.Cecil.dll_DC59955F3A19DA24.mvfrm
Library\Bee\artifacts\mvdfrm\Unity.Burst.Cecil.Mdb.dll_03D37A89D6148661.mvfrm
Library\Bee\artifacts\mvdfrm\Unity.Burst.Cecil.Pdb.dll_1B25F2F954C987E4.mvfrm
Library\Bee\artifacts\mvdfrm\Unity.Burst.Cecil.Rocks.dll_F1301A5C60E7AC84.mvfrm
Library\Bee\artifacts\mvdfrm\Unity.Burst.Unsafe.dll_E6CE208C1E43C12F.mvfrm
Library\Bee\artifacts\mvdfrm\Unity.Plastic.Antlr3.Runtime.dll_3F3749B2E31F6D58.mvfrm
Library\Bee\artifacts\mvdfrm\Unity.Plastic.Newtonsoft.Json.dll_9F1CBE98764AEE5D.mvfrm
Library\Bee\artifacts\mvdfrm\Unity.VisualScripting.IonicZip.dll_138B041A12049C05.mvfrm
Library\Bee\artifacts\mvdfrm\Unity.VisualScripting.YamlDotNet.dll_8A9B8B5551061107.mvfrm
Library\Bee\artifacts\mvdfrm\Unity.VisualScripting.TextureAssets.dll_21B9B4A911D36EFF.mvfrm
Library\Bee\artifacts\mvdfrm\Unity.VisualScripting.Antlr3.Runtime.dll_3C08B23681CF2126.mvfrm